day,town,weather
1,Moskow,+7
2,Moskow,+3
3,Moskow,0
4,Moskow,-3
1,Samara,+10
2,Samara,+6
3,Samara,+2
4,Samara,-1
1,Kirov,+3
2,Kirov,0
3,Kirov,-5
4,Kirov,-7
1,Saratov,+9
2,Saratov,+6
3,Saratov,+3
4,Saratov,0
1,Uralsk,+8
2,Uralsk,+7
3,Uralsk,+3
4,Uralsk,-1
